Gov 50 - Gov 50 Cheat Sheet
…
Data Wrangling (week 2-3)

Subsetting a data frame

Use the filter() function from the dplyr package to subset a data frame.

library(gov50data)

news |>
  filter(weekday == "Tue")

# A tibble: 509 × 10
   callsign affiliation date       weekday ideology national_politics
   <chr>    <chr>       <date>     <ord>      <dbl>             <dbl>
 1 KAEF     ABC         2017-06-13 Tue      0.0242              0.180
 2 KBVU     FOX         2017-06-13 Tue      0.00894             0.186
 3 KBZK     CBS         2017-06-13 Tue      0.129               0.306
 4 KCVU     FOX         2017-06-13 Tue      0.114               0.124
 5 KECI     NBC         2017-06-13 Tue      0.115               0.283
 6 KHSL     CBS         2017-06-13 Tue      0.0821              0.274
 7 KNVN     NBC         2017-06-13 Tue      0.120               0.261
 8 KPAX     CBS         2017-06-13 Tue      0.0984              0.208
 9 KRCR     ABC         2017-06-13 Tue      0.0187              0.206
10 KTMF     ABC         2017-06-13 Tue      0.233               0.101
# ℹ 499 more rows
# ℹ 4 more variables: local_politics <dbl>, sinclair2017 <dbl>, post <dbl>,
#   month <ord>

You can filter based on multiple conditions to subset to the rows that meet all conditions:

news |>
  filter(weekday == "Tue",
         affiliation == "FOX")

# A tibble: 70 × 10
   callsign affiliation date       weekday ideology national_politics
   <chr>    <chr>       <date>     <ord>      <dbl>             <dbl>
 1 KBVU     FOX         2017-06-13 Tue      0.00894            0.186 
 2 KCVU     FOX         2017-06-13 Tue      0.114              0.124 
 3 WEMT     FOX         2017-06-13 Tue      0.235              0.149 
 4 WYDO     FOX         2017-06-13 Tue      0.0949             0.182 
 5 WEMT     FOX         2017-06-20 Tue      0.268              0.134 
 6 WYDO     FOX         2017-06-20 Tue      0.0590             0.155 
 7 WEMT     FOX         2017-06-27 Tue      0.0457             0.164 
 8 WYDO     FOX         2017-06-27 Tue     -0.0588             0.147 
 9 WEMT     FOX         2017-07-04 Tue      0.0801             0.0986
10 WYDO     FOX         2017-07-04 Tue      0.0555             0.0910
# ℹ 60 more rows
# ℹ 4 more variables: local_politics <dbl>, sinclair2017 <dbl>, post <dbl>,
#   month <ord>

You can use the | operator to match one of two conditions (“OR” rather than “AND”):

news |>
  filter(affiliation == "FOX" | affiliation == "ABC")

# A tibble: 1,033 × 10
   callsign affiliation date       weekday  ideology national_politics
   <chr>    <chr>       <date>     <ord>       <dbl>             <dbl>
 1 KTMF     ABC         2017-06-07 Wed      0.0842              0.152 
 2 KTXS     ABC         2017-06-07 Wed     -0.000488            0.0925
 3 KAEF     ABC         2017-06-08 Thu      0.0426              0.213 
 4 KBVU     FOX         2017-06-08 Thu     -0.0860              0.169 
 5 KTMF     ABC         2017-06-08 Thu      0.0433              0.179 
 6 KTXS     ABC         2017-06-08 Thu      0.0627              0.158 
 7 WCTI     ABC         2017-06-08 Thu      0.139               0.225 
 8 KAEF     ABC         2017-06-09 Fri      0.0870              0.153 
 9 KTXS     ABC         2017-06-09 Fri      0.0879              0.0790
10 WCTI     ABC         2017-06-09 Fri      0.0667              0.182 
# ℹ 1,023 more rows
# ℹ 4 more variables: local_politics <dbl>, sinclair2017 <dbl>, post <dbl>,
#   month <ord>

To test if a variable is one of several possible values, you can also use the %in% command:

news |>
  filter(weekday %in% c("Mon", "Fri"))

# A tibble: 1,021 × 10
   callsign affiliation date       weekday ideology national_politics
   <chr>    <chr>       <date>     <ord>      <dbl>             <dbl>
 1 KAEF     ABC         2017-06-09 Fri       0.0870            0.153 
 2 KECI     NBC         2017-06-09 Fri       0.115             0.216 
 3 KPAX     CBS         2017-06-09 Fri       0.0882            0.315 
 4 KRBC     NBC         2017-06-09 Fri       0.0929            0.152 
 5 KTAB     CBS         2017-06-09 Fri       0.0588            0.0711
 6 KTXS     ABC         2017-06-09 Fri       0.0879            0.0790
 7 WCTI     ABC         2017-06-09 Fri       0.0667            0.182 
 8 WITN     NBC         2017-06-09 Fri      -0.0683            0.146 
 9 WNCT     CBS         2017-06-09 Fri      -0.0181            0.126 
10 WYDO     FOX         2017-06-09 Fri      -0.0330            0.0802
# ℹ 1,011 more rows
# ℹ 4 more variables: local_politics <dbl>, sinclair2017 <dbl>, post <dbl>,
#   month <ord>
…
Sorting rows by a variable

You can sort the rows of a data set using the arrange() function. By default, this will sort the rows from smallest to largest.

news |>
  arrange(ideology)

# A tibble: 2,560 × 10
   callsign affiliation date       weekday ideology national_politics
   <chr>    <chr>       <date>     <ord>      <dbl>             <dbl>
 1 KRBC     NBC         2017-10-19 Thu       -0.674            0.0731
 2 WJHL     CBS         2017-12-08 Fri       -0.673            0.0364
 3 KRBC     NBC         2017-10-18 Wed       -0.586            0.0470
 4 KCVU     FOX         2017-06-22 Thu       -0.414            0.158 
 5 KRBC     NBC         2017-12-11 Mon       -0.365            0.0674
 6 KAEF     ABC         2017-06-21 Wed       -0.315            0.130 
 7 KTMF     ABC         2017-12-01 Fri       -0.303            0.179 
 8 KWYB     ABC         2017-12-01 Fri       -0.303            0.160 
 9 KTVM     NBC         2017-09-01 Fri       -0.302            0.0507
10 KNVN     NBC         2017-12-08 Fri       -0.299            0.121 
# ℹ 2,550 more rows
# ℹ 4 more variables: local_politics <dbl>, sinclair2017 <dbl>, post <dbl>,
#   month <ord>

If you would like to sort the rows from largest to smallest (descending order), you can wrap the variable name with desc():

news |>
  arrange(desc(ideology))

# A tibble: 2,560 × 10
   callsign affiliation date       weekday ideology national_politics
   <chr>    <chr>       <date>     <ord>      <dbl>             <dbl>
 1 KAEF     ABC         2017-06-19 Mon        0.778            0.0823
 2 WYDO     FOX         2017-07-19 Wed        0.580            0.126 
 3 KRCR     ABC         2017-10-03 Tue        0.566            0.123 
 4 KAEF     ABC         2017-10-18 Wed        0.496            0.0892
 5 KBVU     FOX         2017-11-16 Thu        0.491            0.159 
 6 KTMF     ABC         2017-11-06 Mon        0.455            0.138 
 7 KAEF     ABC         2017-06-29 Thu        0.447            0.126 
 8 KPAX     CBS         2017-11-23 Thu        0.437            0.125 
 9 KTAB     CBS         2017-11-16 Thu        0.427            0.0631
10 KCVU     FOX         2017-07-06 Thu        0.406            0.154 
# ℹ 2,550 more rows
# ℹ 4 more variables: local_politics <dbl>, sinclair2017 <dbl>, post <dbl>,
#   month <ord>

Selecting/subsetting the columns

You can subset the data to only certain columns using the select() command:

news |>
  select(callsign, date, ideology)

# A tibble: 2,560 × 3
   callsign date        ideology
   <chr>    <date>         <dbl>
 1 KECI     2017-06-07  0.0655  
 2 KPAX     2017-06-07  0.0853  
 3 KRBC     2017-06-07  0.0183  
 4 KTAB     2017-06-07  0.0850  
 5 KTMF     2017-06-07  0.0842  
 6 KTXS     2017-06-07 -0.000488
 7 KAEF     2017-06-08  0.0426  
 8 KBVU     2017-06-08 -0.0860  
 9 KECI     2017-06-08  0.0902  
10 KPAX     2017-06-08  0.0668  
# ℹ 2,550 more rows

If you want to select a range of columns from, say, callsign to ideology, you can use the : operator:

news |>
  select(callsign:ideology)

# A tibble: 2,560 × 5
   callsign affiliation date       weekday  ideology
   <chr>    <chr>       <date>     <ord>       <dbl>
 1 KECI     NBC         2017-06-07 Wed      0.0655  
 2 KPAX     CBS         2017-06-07 Wed      0.0853  
 3 KRBC     NBC         2017-06-07 Wed      0.0183  
 4 KTAB     CBS         2017-06-07 Wed      0.0850  
 5 KTMF     ABC         2017-06-07 Wed      0.0842  
 6 KTXS     ABC         2017-06-07 Wed     -0.000488
 7 KAEF     ABC         2017-06-08 Thu      0.0426  
 8 KBVU     FOX         2017-06-08 Thu     -0.0860  
 9 KECI     NBC         2017-06-08 Thu      0.0902  
10 KPAX     CBS         2017-06-08 Thu      0.0668  
# ℹ 2,550 more rows

You can remove a variable from the data set by using the minus sign - in front of it:

news |>
  select(-callsign)

# A tibble: 2,560 × 9
   affiliation date       weekday  ideology national_politics local_politics
   <chr>       <date>     <ord>       <dbl>             <dbl>          <dbl>
 1 NBC         2017-06-07 Wed      0.0655              0.225          0.148 
 2 CBS         2017-06-07 Wed      0.0853              0.283          0.123 
 3 NBC         2017-06-07 Wed      0.0183              0.130          0.189 
 4 CBS         2017-06-07 Wed      0.0850              0.0901         0.138 
 5 ABC         2017-06-07 Wed      0.0842              0.152          0.129 
 6 ABC         2017-06-07 Wed     -0.000488            0.0925         0.0791
 7 ABC         2017-06-08 Thu      0.0426              0.213          0.228 
 8 FOX         2017-06-08 Thu     -0.0860              0.169          0.247 
 9 NBC         2017-06-08 Thu      0.0902              0.276          0.152 
10 CBS         2017-06-08 Thu      0.0668              0.305          0.124 
# ℹ 2,550 more rows
# ℹ 3 more variables: sinclair2017 <dbl>, post <dbl>, month <ord>

You can also drop several variables using the c() function or the (a:b) syntax:

news |>
  select(-c(callsign, date, ideology))

# A tibble: 2,560 × 7
   affiliation weekday national_politics local_politics sinclair2017  post month
   <chr>       <ord>               <dbl>          <dbl>        <dbl> <dbl> <ord>
 1 NBC         Wed                0.225          0.148             1     0 Jun  
 2 CBS         Wed                0.283          0.123             0     0 Jun  
 3 NBC         Wed                0.130          0.189             0     0 Jun  
 4 CBS         Wed                0.0901         0.138             0     0 Jun  
 5 ABC         Wed                0.152          0.129             0     0 Jun  
 6 ABC         Wed                0.0925         0.0791            1     0 Jun  
 7 ABC         Thu                0.213          0.228             1     0 Jun  
 8 FOX         Thu                0.169          0.247             1     0 Jun  
 9 NBC         Thu                0.276          0.152             1     0 Jun  
10 CBS         Thu                0.305          0.124             0     0 Jun  
# ℹ 2,550 more rows

news |>
  select(-(callsign:ideology))

# A tibble: 2,560 × 5
   national_politics local_politics sinclair2017  post month
               <dbl>          <dbl>        <dbl> <dbl> <ord>
 1            0.225          0.148             1     0 Jun  
 2            0.283          0.123             0     0 Jun  
 3            0.130          0.189             0     0 Jun  
 4            0.0901         0.138             0     0 Jun  
 5            0.152          0.129             0     0 Jun  
 6            0.0925         0.0791            1     0 Jun  
 7            0.213          0.228             1     0 Jun  
 8            0.169          0.247             1     0 Jun  
 9            0.276          0.152             1     0 Jun  
10            0.305          0.124             0     0 Jun  
# ℹ 2,550 more rows

You can also select columns based on matching patterns in the names with functions like starts_with() or ends_with():

news |>
  select(ends_with("politics"))

# A tibble: 2,560 × 2
   national_politics local_politics
               <dbl>          <dbl>
 1            0.225          0.148 
 2            0.283          0.123 
 3            0.130          0.189 
 4            0.0901         0.138 
 5            0.152          0.129 
 6            0.0925         0.0791
 7            0.213          0.228 
 8            0.169          0.247 
 9            0.276          0.152 
10            0.305          0.124 
# ℹ 2,550 more rows

This code finds all variables with column names that end with the string “politics”. See the help page for select() for more information on different ways to select.

Renaming a variable

You can rename a variable useing the function rename(new_name = old_name):

news |>
  rename(call_sign = callsign)

# A tibble: 2,560 × 10
   call_sign affiliation date       weekday  ideology national_politics
   <chr>     <chr>       <date>     <ord>       <dbl>             <dbl>
 1 KECI      NBC         2017-06-07 Wed      0.0655              0.225 
 2 KPAX      CBS         2017-06-07 Wed      0.0853              0.283 
 3 KRBC      NBC         2017-06-07 Wed      0.0183              0.130 
 4 KTAB      CBS         2017-06-07 Wed      0.0850              0.0901
 5 KTMF      ABC         2017-06-07 Wed      0.0842              0.152 
 6 KTXS      ABC         2017-06-07 Wed     -0.000488            0.0925
 7 KAEF      ABC         2017-06-08 Thu      0.0426              0.213 
 8 KBVU      FOX         2017-06-08 Thu     -0.0860              0.169 
 9 KECI      NBC         2017-06-08 Thu      0.0902              0.276 
10 KPAX      CBS         2017-06-08 Thu      0.0668              0.305 
# ℹ 2,550 more rows
# ℹ 4 more variables: local_politics <dbl>, sinclair2017 <dbl>, post <dbl>,
#   month <ord>

Creating new variables

You can create new variables that are functions of old variables using the mutate() function:

news |> mutate(
  national_local_diff = national_politics - local_politics) |>
  select(callsign, date, national_politics, local_politics,
         national_local_diff)

# A tibble: 2,560 × 5
   callsign date       national_politics local_politics national_local_diff
   <chr>    <date>                 <dbl>          <dbl>               <dbl>
 1 KECI     2017-06-07            0.225          0.148               0.0761
 2 KPAX     2017-06-07            0.283          0.123               0.160 
 3 KRBC     2017-06-07            0.130          0.189              -0.0589
 4 KTAB     2017-06-07            0.0901         0.138              -0.0476
 5 KTMF     2017-06-07            0.152          0.129               0.0229
 6 KTXS     2017-06-07            0.0925         0.0791              0.0134
 7 KAEF     2017-06-08            0.213          0.228              -0.0151
 8 KBVU     2017-06-08            0.169          0.247              -0.0781
 9 KECI     2017-06-08            0.276          0.152               0.124 
10 KPAX     2017-06-08            0.305          0.124               0.180 
# ℹ 2,550 more rows

Creating new variables based on yes/no conditions

If you want to create a new variable that can take on two values based on a logical conditional, you should use the if_else() function inside of mutate(). For instance, if we want to create a more nicely labeled version of the sinclair2017 variable (which is 0/1), we could do:

news |>
  mutate(Ownership = if_else(sinclair2017 == 1,
                             "Acquired by Sinclair",
                             "Not Acquired")) |>
  select(callsign, affiliation, date, sinclair2017, Ownership)

# A tibble: 2,560 × 5
   callsign affiliation date       sinclair2017 Ownership           
   <chr>    <chr>       <date>            <dbl> <chr>               
 1 KECI     NBC         2017-06-07            1 Acquired by Sinclair
 2 KPAX     CBS         2017-06-07            0 Not Acquired        
 3 KRBC     NBC         2017-06-07            0 Not Acquired        
 4 KTAB     CBS         2017-06-07            0 Not Acquired        
 5 KTMF     ABC         2017-06-07            0 Not Acquired        
 6 KTXS     ABC         2017-06-07            1 Acquired by Sinclair
 7 KAEF     ABC         2017-06-08            1 Acquired by Sinclair
 8 KBVU     FOX         2017-06-08            1 Acquired by Sinclair
 9 KECI     NBC         2017-06-08            1 Acquired by Sinclair
10 KPAX     CBS         2017-06-08            0 Not Acquired        
# ℹ 2,550 more rows
…
